{
  "count": 454485,
  "next": "https://api.rawg.io/api/developers?key=ff21d233351b48e39e19b6a27274792b&page=3",
  "previous": "https://api.rawg.io/api/developers?key=ff21d233351b48e39e19b6a27274792b",
  "results": [
    {
      "id": 4,
      "name": "Bethesda Softworks",
      "slug": "bethesda-softworks",
      "games_count": 63,
      "image_background": "https://media.rawg.io/media/games/4e6/4e6e8e7f50c237d76f38f3c885dae3d2.jpg",
      "games": [
        {
          "id": 2454,
          "slug": "doom",
          "name": "DOOM (2016)",
          "added": 13795
        },
        {
          "id": 3696,
          "slug": "wolfenstein-the-new-order",
          "name": "Wolfenstein: The New Order",
          "added": 10296
        },
        {
          "id": 864,
          "slug": "dishonored-2",
          "name": "Dishonored 2",
          "added": 9863
        },
        {
          "id": 4248,
          "slug": "dishonored",
          "name": "Dishonored",
          "added": 9774
        },
        {
          "id": 58777,
          "slug": "doom-eternal",
          "name": "DOOM Eternal",
          "added": 7797
        },
        {
          "id": 28202,
          "slug": "wolfenstein-2-the-new-colossus",
          "name": "Wolfenstein II: The New Colossus",
          "added": 7165
        }
      ]
    },
    {
      "id": 694,
      "name": "Telltale Games",
      "slug": "telltale-games",
      "games_count": 131,
      "image_background": "https://media.rawg.io/media/games/674/674b67b66f510f5b273f50ca09341ee2.jpg",
      "games": [
        {
          "id": 23027,
          "slug": "the-walking-dead",
          "name": "The Walking Dead: Season 1",
          "added": 11542
        },
        {
          "id": 1682,
          "slug": "the-wolf-among-us",
          "name": "The Wolf Among Us",
          "added": 7649
        },
        {
          "id": 15834,
          "slug": "the-walking-dead-season-2",
          "name": "The Walking Dead: Season 2",
          "added": 6209
        },
        {
          "id": 2166,
          "slug": "game-of-thrones-a-telltale-games-series",
          "name": "Game of Thrones - A Telltale Games Series",
          "added": 5263
        },
        {
          "id": 2100,
          "slug": "tales-from-the-borderlands",
          "name": "Tales from the Borderlands: A Telltale Game Series",
          "added": 5101
        },
        {
          "id": 2255,
          "slug": "7-days-to-die",
          "name": "7 Days to Die",
          "added": 4266
        }
      ]
    },
    {
      "id": 383,
      "name": "2K",
      "slug": "2k",
      "games_count": 60,
      "image_background": "https://media.rawg.io/media/games/49c/49c3dfa4ce2f6f140cc4825868e858cb.jpg",
      "games": [
        {
          "id": 802,
          "slug": "borderlands-2",
          "name": "Borderlands 2",
          "added": 15744
        },
        {
          "id": 4427,
          "slug": "bioshock-2",
          "name": "BioShock 2",
          "added": 11401
        },
        {
          "id": 4828,
          "slug": "borderlands",
          "name": "Borderlands",
          "added": 10013
        },
        {
          "id": 3543,
          "slug": "borderlands-the-pre-sequel",
          "name": "Borderlands: The Pre-Sequel",
          "added": 9236
        },
        {
          "id": 13910,
          "slug": "xcom-enemy-unknown",
          "name": "XCOM: Enemy Unknown",
          "added": 8459
        },
        {
          "id": 4223,
          "slug": "the-darkness-ii",
          "name": "The Darkness II",
          "added": 8079
        }
      ]
    },
    {
      "id": 3,
      "name": "Warner Bros. Interactive",
      "slug": "warner-bros-interactive",
      "games_count": 79,
      "image_background": "https://media.rawg.io/media/screenshots/1c9/1c9c69f0edb8c4f45e3fa6958fb8d40a.jpg",
      "games": [
        {
          "id": 108,
          "slug": "mortal-kombat-x",
          "name": "Mortal Kombat X",
          "added": 8934
        },
        {
          "id": 613,
          "slug": "bastion",
          "name": "Bastion",
          "added": 8716
        },
        {
          "id": 25,
          "slug": "middle-earth-shadow-of-war",
          "name": "Middle-earth: Shadow of War",
          "added": 8629
        },
        {
          "id": 2235,
          "slug": "batman-arkham-origins",
          "name": "Batman: Arkham Origins",
          "added": 7937
        },
        {
          "id": 2597,
          "slug": "lego-lord-of-the-rings",
          "name": "LEGO The Lord of the Rings",
          "added": 5946
        },
        {
          "id": 3729,
          "slug": "lego-the-hobbit",
          "name": "LEGO The Hobbit",
          "added": 5455
        }
      ]
    },
    {
      "id": 386,
      "name": "BANDAI NAMCO Entertainment America",
      "slug": "bandai-namco-entertainment-america-inc",
      "games_count": 138,
      "image_background": "https://media.rawg.io/media/screenshots/104/104603a5c863d6fa6be4d4bb1fed6db6.jpeg",
      "games": [
        {
          "id": 41,
          "slug": "little-nightmares",
          "name": "Little Nightmares",
          "added": 11489
        },
        {
          "id": 2551,
          "slug": "dark-souls-iii",
          "name": "Dark Souls III",
          "added": 10967
        },
        {
          "id": 3371,
          "slug": "dark-souls-ii-scholar-of-the-first-sin",
          "name": "Dark Souls II: Scholar of the First Sin",
          "added": 6111
        },
        {
          "id": 36,
          "slug": "tekken-7",
          "name": "TEKKEN 7",
          "added": 4164
        },
        {
          "id": 5538,
          "slug": "dark-souls",
          "name": "Dark Souls",
          "added": 3277
        },
        {
          "id": 58637,
          "slug": "code-vein",
          "name": "Code Vein",
          "added": 2959
        }
      ]
    },
    {
      "id": 436,
      "name": "Devolver Digital",
      "slug": "devolver-digital",
      "games_count": 61,
      "image_background": "https://media.rawg.io/media/screenshots/2fc/2fc6994425146f9dba3133400b414e29.jpg",
      "games": [
        {
          "id": 3612,
          "slug": "hotline-miami",
          "name": "Hotline Miami",
          "added": 10773
        },
        {
          "id": 11435,
          "slug": "viscera-cleanup-detail-shadow-warrior",
          "name": "Viscera Cleanup Detail: Shadow Warrior",
          "added": 7422
        },
        {
          "id": 2733,
          "slug": "broforce",
          "name": "Broforce",
          "added": 6343
        },
        {
          "id": 3408,
          "slug": "hotline-miami-2-wrong-number",
          "name": "Hotline Miami 2: Wrong Number",
          "added": 6371
        },
        {
          "id": 3368,
          "slug": "titan-souls",
          "name": "Titan Souls",
          "added": 5730
        },
        {
          "id": 3697,
          "slug": "serious-sam-3-bfe",
          "name": "Serious Sam 3: BFE",
          "added": 5313
        }
      ]
    },
    {
      "id": 343,
      "name": "id Software",
      "slug": "id-software",
      "games_count": 88,
      "image_background": "https://media.rawg.io/media/screenshots/e0a/e0a77715d71a82bbeb2477b7b25a70cd.jpg",
      "games": [
        {
          "id": 2454,
          "slug": "doom",
          "name": "DOOM (2016)",
          "added": 13795
        },
        {
          "id": 58777,
          "slug": "doom-eternal",
          "name": "DOOM Eternal",
          "added": 7797
        },
        {
          "id": 28202,
          "slug": "wolfenstein-2-the-new-colossus",
          "name": "Wolfenstein II: The New Colossus",
          "added": 7165
        },
        {
          "id": 43877,
          "slug": "quake-champions",
          "name": "Quake Champions",
          "added": 7182
        },
        {
          "id": 5636,
          "slug": "rage",
          "name": "Rage",
          "added": 4594
        },
        {
          "id": 19458,
          "slug": "doom-3",
          "name": "DOOM 3",
          "added": 3918
        }
      ]
    },
    {
      "id": 4015,
      "name": "Gearbox Software",
      "slug": "gearbox-software",
      "games_count": 56,
      "image_background": "https://media.rawg.io/media/screenshots/106/10627dbd0a3449397ac4fd1fe363f91e.jpg",
      "games": [
        {
          "id": 802,
          "slug": "borderlands-2",
          "name": "Borderlands 2",
          "added": 15744
        },
        {
          "id": 18080,
          "slug": "half-life",
          "name": "Half-Life",
          "added": 11334
        },
        {
          "id": 4828,
          "slug": "borderlands",
          "name": "Borderlands",
          "added": 10013
        },
        {
          "id": 3543,
          "slug": "borderlands-the-pre-sequel",
          "name": "Borderlands: The Pre-Sequel",
          "added": 9236
        },
        {
          "id": 19542,
          "slug": "half-life-blue-shift",
          "name": "Half-Life: Blue Shift",
          "added": 6995
        },
        {
          "id": 21265,
          "slug": "half-life-opposing-force",
          "name": "Half-Life: Opposing Force",
          "added": 6986
        }
      ]
    },
    {
      "id": 4207,
      "name": "Bethesda Game Studios",
      "slug": "bethesda-game-studios",
      "games_count": 39,
      "image_background": "https://media.rawg.io/media/games/7cf/7cfc9220b401b7a300e409e539c9afd5.jpg",
      "games": [
        {
          "id": 5679,
          "slug": "the-elder-scrolls-v-skyrim",
          "name": "The Elder Scrolls V: Skyrim",
          "added": 16448
        },
        {
          "id": 3070,
          "slug": "fallout-4",
          "name": "Fallout 4",
          "added": 14028
        },
        {
          "id": 12447,
          "slug": "the-elder-scrolls-v-skyrim-special-edition",
          "name": "The Elder Scrolls V: Skyrim Special Edition",
          "added": 9982
        },
        {
          "id": 58777,
          "slug": "doom-eternal",
          "name": "DOOM Eternal",
          "added": 7797
        },
        {
          "id": 559,
          "slug": "fallout-shelter",
          "name": "Fallout Shelter",
          "added": 7024
        },
        {
          "id": 5562,
          "slug": "fallout-3",
          "name": "Fallout 3",
          "added": 6563
        }
      ]
    },
    {
      "id": 23342,
      "name": "NVIDIA Lightspeed Studios",
      "slug": "nvidia-lightspeed-studios",
      "games_count": 22,
      "image_background": "https://media.rawg.io/media/screenshots/a0f/a0f898ff084625c10e7f84058325b2eb.jpg",
      "games": [
        {
          "id": 13536,
          "slug": "portal",
          "name": "Portal",
          "added": 17425
        },
        {
          "id": 13537,
          "slug": "half-life-2",
          "name": "Half-Life 2",
          "added": 15755
        },
        {
          "id": 19710,
          "slug": "half-life-2-episode-one",
          "name": "Half-Life 2: Episode One",
          "added": 11297
        },
        {
          "id": 19709,
          "slug": "half-life-2-episode-two",
          "name": "Half-Life 2: Episode Two",
          "added": 11192
        },
        {
          "id": 3144,
          "slug": "super-meat-boy",
          "name": "Super Meat Boy",
          "added": 9633
        },
        {
          "id": 2873,
          "slug": "the-witness",
          "name": "The Witness",
          "added": 6339
        }
      ]
    }
  ]
}