{
  "count": 454486,
  "next": "https://api.rawg.io/api/developers?key=ff21d233351b48e39e19b6a27274792b&page=6",
  "previous": "https://api.rawg.io/api/developers?key=ff21d233351b48e39e19b6a27274792b&page=4",
  "results": [
    {
      "id": 237,
      "name": "505 Games",
      "slug": "505-games",
      "games_count": 52,
      "image_background": "https://media.rawg.io/media/screenshots/83c/83cbd785bb203df5a971bf8a24df9a66.jpg",
      "games": [
        {
          "id": 3939,
          "slug": "payday-2",
          "name": "PAYDAY 2",
          "added": 14045
        },
        {
          "id": 58812,
          "slug": "control",
          "name": "Control",
          "added": 9486
        },
        {
          "id": 13247,
          "slug": "human-fall-flat",
          "name": "Human: Fall Flat",
          "added": 5863
        },
        {
          "id": 3651,
          "slug": "sniper-elite-3",
          "name": "Sniper Elite 3",
          "added": 4025
        },
        {
          "id": 61176,
          "slug": "bloodstained-ritual-of-the-night",
          "name": "Bloodstained: Ritual of the Night",
          "added": 3371
        },
        {
          "id": 3863,
          "slug": "how-to-survive",
          "name": "How to Survive",
          "added": 3194
        }
      ]
    },
    {
      "id": 4103,
      "name": "Volition",
      "slug": "volition",
      "games_count": 36,
      "image_background": "https://media.rawg.io/media/games/94a/94a59c5136a9b90eef5f23fea7bf997c.jpg",
      "games": [
        {
          "id": 4386,
          "slug": "saints-row-the-third",
          "name": "Saints Row: The Third",
          "added": 10214
        },
        {
          "id": 3931,
          "slug": "saints-row-iv",
          "name": "Saints Row IV",
          "added": 8149
        },
        {
          "id": 4599,
          "slug": "saints-row-2",
          "name": "Saints Row 2",
          "added": 7448
        },
        {
          "id": 15566,
          "slug": "red-faction-guerrilla",
          "name": "Red Faction: Guerrilla",
          "added": 4700
        },
        {
          "id": 4523,
          "slug": "red-faction-armageddon",
          "name": "Red Faction: Armageddon",
          "added": 4453
        },
        {
          "id": 3450,
          "slug": "saints-row-gat-out-of-hell",
          "name": "Saints Row: Gat Out of Hell",
          "added": 4019
        }
      ]
    },
    {
      "id": 3897,
      "name": "Arkane Studios",
      "slug": "arkane-studios",
      "games_count": 25,
      "image_background": "https://media.rawg.io/media/games/683/6834c702c73e28ef2b3b003bb2c54567.jpg",
      "games": [
        {
          "id": 39,
          "slug": "prey",
          "name": "Prey",
          "added": 10105
        },
        {
          "id": 4248,
          "slug": "dishonored",
          "name": "Dishonored",
          "added": 9774
        },
        {
          "id": 864,
          "slug": "dishonored-2",
          "name": "Dishonored 2",
          "added": 9863
        },
        {
          "id": 28202,
          "slug": "wolfenstein-2-the-new-colossus",
          "name": "Wolfenstein II: The New Colossus",
          "added": 7165
        },
        {
          "id": 326251,
          "slug": "deathloop-2",
          "name": "Deathloop",
          "added": 4433
        },
        {
          "id": 29173,
          "slug": "dishonored-death-of-the-outsider",
          "name": "Dishonored: Death of the Outsider",
          "added": 3879
        }
      ]
    },
    {
      "id": 2590,
      "name": "Plug In Digital",
      "slug": "plug-in-digital",
      "games_count": 244,
      "image_background": "https://media.rawg.io/media/screenshots/9df/9df4944fa944e49b67b21c36aba624ae.jpg",
      "games": [
        {
          "id": 11726,
          "slug": "dead-cells",
          "name": "Dead Cells",
          "added": 7139
        },
        {
          "id": 11214,
          "slug": "northgard",
          "name": "Northgard",
          "added": 3211
        },
        {
          "id": 9612,
          "slug": "ghost-of-a-tale",
          "name": "Ghost of a Tale",
          "added": 1902
        },
        {
          "id": 10986,
          "slug": "syberia-3",
          "name": "Syberia 3",
          "added": 1863
        },
        {
          "id": 964,
          "slug": "ticket-to-ride",
          "name": "Ticket to Ride",
          "added": 1827
        },
        {
          "id": 13834,
          "slug": "epistory",
          "name": "Epistory - Typing Chronicles",
          "added": 1700
        }
      ]
    },
    {
      "id": 16,
      "name": "Double Fine Productions",
      "slug": "double-fine-productions",
      "games_count": 33,
      "image_background": "https://media.rawg.io/media/games/764/7648a8802fae5247298d775c85e9535f.jpg",
      "games": [
        {
          "id": 5525,
          "slug": "brutal-legend",
          "name": "Brutal Legend",
          "added": 8379
        },
        {
          "id": 2361,
          "slug": "psychonauts",
          "name": "Psychonauts",
          "added": 8270
        },
        {
          "id": 1774,
          "slug": "grim-fandango-remastered",
          "name": "Grim Fandango Remastered",
          "added": 6382
        },
        {
          "id": 3350,
          "slug": "broken-age",
          "name": "Broken Age",
          "added": 5125
        },
        {
          "id": 2639,
          "slug": "day-of-the-tentacle-remastered",
          "name": "Day of the Tentacle Remastered",
          "added": 3236
        },
        {
          "id": 43,
          "slug": "full-throttle-remastered",
          "name": "Full Throttle Remastered",
          "added": 3009
        }
      ]
    },
    {
      "id": 4988,
      "name": "Daedalic Entertainment",
      "slug": "daedalic-entertainment",
      "games_count": 63,
      "image_background": "https://media.rawg.io/media/screenshots/a16/a165c67bb75b40b5f8a310c55e9d34de.jpg",
      "games": [
        {
          "id": 719,
          "slug": "deponia",
          "name": "Deponia",
          "added": 4871
        },
        {
          "id": 15714,
          "slug": "deponia-the-complete-journey",
          "name": "Deponia: The Complete Journey",
          "added": 4490
        },
        {
          "id": 10767,
          "slug": "shadow-tactics",
          "name": "Shadow Tactics: Blades of the Shogun",
          "added": 4628
        },
        {
          "id": 15713,
          "slug": "chaos-on-deponia",
          "name": "Chaos on Deponia",
          "added": 2544
        },
        {
          "id": 15712,
          "slug": "goodbye-deponia",
          "name": "Goodbye Deponia",
          "added": 2341
        },
        {
          "id": 16255,
          "slug": "harveys-new-eyes",
          "name": "Edna & Harvey: Harvey's New Eyes",
          "added": 2167
        }
      ]
    },
    {
      "id": 409,
      "name": "Obsidian Entertainment",
      "slug": "obsidian-entertainment",
      "games_count": 43,
      "image_background": "https://media.rawg.io/media/games/2b8/2b8d286b1931169e1a1e42147ec6d83f.jpg",
      "games": [
        {
          "id": 5563,
          "slug": "fallout-new-vegas",
          "name": "Fallout: New Vegas",
          "added": 9994
        },
        {
          "id": 3757,
          "slug": "south-park-the-stick-of-truth",
          "name": "South Park: The Stick of Truth",
          "added": 6989
        },
        {
          "id": 274762,
          "slug": "the-outer-worlds",
          "name": "The Outer Worlds",
          "added": 6243
        },
        {
          "id": 15858,
          "slug": "kotor-ii",
          "name": "Star Wars: Knights of the Old Republic II – The Sith Lords",
          "added": 5595
        },
        {
          "id": 15829,
          "slug": "pillars-of-eternity",
          "name": "Pillars of Eternity",
          "added": 4697
        },
        {
          "id": 14989,
          "slug": "alpha-protocol",
          "name": "Alpha Protocol",
          "added": 3764
        }
      ]
    },
    {
      "id": 14443,
      "name": "LucasArts Entertainment",
      "slug": "lucasarts-entertainment",
      "games_count": 89,
      "image_background": "https://media.rawg.io/media/screenshots/c7c/c7cec66d0ef731f891e413fc4c5dfa74.jpg",
      "games": [
        {
          "id": 1774,
          "slug": "grim-fandango-remastered",
          "name": "Grim Fandango Remastered",
          "added": 6382
        },
        {
          "id": 13886,
          "slug": "star-wars-battlefront-ii-2",
          "name": "Star Wars: Battlefront II (2005)",
          "added": 4846
        },
        {
          "id": 15860,
          "slug": "star-wars-the-force-unleashed-2",
          "name": "STAR WARS: The Force Unleashed II",
          "added": 3534
        },
        {
          "id": 35561,
          "slug": "star-wars-republic-commando-2",
          "name": "Star Wars: Republic Commando",
          "added": 3429
        },
        {
          "id": 15861,
          "slug": "star-wars-the-force-unleashed-ultimate-sith-editio",
          "name": "STAR WARS - The Force Unleashed Ultimate Sith Edition",
          "added": 3301
        },
        {
          "id": 15851,
          "slug": "star-wars-dark-forces-2",
          "name": "Star Wars: Dark Forces",
          "added": 3090
        }
      ]
    },
    {
      "id": 3715,
      "name": "Relic Entertainment",
      "slug": "relic-entertainment",
      "games_count": 40,
      "image_background": "https://media.rawg.io/media/screenshots/ee2/ee26304beaa6cda35c53604868164cca.jpg",
      "games": [
        {
          "id": 10243,
          "slug": "company-of-heroes-2",
          "name": "Company of Heroes 2",
          "added": 9855
        },
        {
          "id": 12756,
          "slug": "warhammer-40000-space-marine",
          "name": "Warhammer 40,000: Space Marine",
          "added": 6045
        },
        {
          "id": 18183,
          "slug": "company-of-heroes",
          "name": "Company of Heroes",
          "added": 5805
        },
        {
          "id": 13469,
          "slug": "warhammer-40000-dawn-of-war-game-of-the-year-editi",
          "name": "Warhammer 40,000: Dawn of War - Game of the Year Edition",
          "added": 3953
        },
        {
          "id": 18184,
          "slug": "company-of-heroes-opposing-fronts",
          "name": "Company of Heroes: Opposing Fronts",
          "added": 3714
        },
        {
          "id": 18185,
          "slug": "company-of-heroes-tales-of-valor",
          "name": "Company of Heroes: Tales of Valor",
          "added": 3400
        }
      ]
    },
    {
      "id": 6294,
      "name": "Remedy Entertainment",
      "slug": "remedy-entertainment",
      "games_count": 25,
      "image_background": "https://media.rawg.io/media/games/9ce/9ce8bca2fa1bd514bad2574fbc947401.jpg",
      "games": [
        {
          "id": 19487,
          "slug": "alan-wake",
          "name": "Alan Wake",
          "added": 10327
        },
        {
          "id": 58812,
          "slug": "control",
          "name": "Control",
          "added": 9486
        },
        {
          "id": 6617,
          "slug": "quantum-break",
          "name": "Quantum Break",
          "added": 6709
        },
        {
          "id": 18336,
          "slug": "alan-wakes-american-nightmare",
          "name": "Alan Wake's American Nightmare",
          "added": 6101
        },
        {
          "id": 2518,
          "slug": "max-payne",
          "name": "Max Payne",
          "added": 5655
        },
        {
          "id": 29153,
          "slug": "max-payne-2-the-fall-of-max-payne",
          "name": "Max Payne 2: The Fall of Max Payne",
          "added": 4761
        }
      ]
    }
  ]
}