{
  "count": 454486,
  "next": "https://api.rawg.io/api/developers?key=ff21d233351b48e39e19b6a27274792b&page=8",
  "previous": "https://api.rawg.io/api/developers?key=ff21d233351b48e39e19b6a27274792b&page=6",
  "results": [
    {
      "id": 9264,
      "name": "DONTNOD Entertainment",
      "slug": "dontnod-entertainment",
      "games_count": 24,
      "image_background": "https://media.rawg.io/media/games/b23/b23b056bd29d115933bab4492950f9d7.jpg",
      "games": [
        {
          "id": 3439,
          "slug": "life-is-strange-episode-1-2",
          "name": "Life is Strange",
          "added": 15718
        },
        {
          "id": 4000,
          "slug": "remember-me",
          "name": "Remember Me",
          "added": 5152
        },
        {
          "id": 28110,
          "slug": "vampyr",
          "name": "Vampyr",
          "added": 4906
        },
        {
          "id": 58952,
          "slug": "life-is-strange-2",
          "name": "Life is Strange 2",
          "added": 4738
        },
        {
          "id": 58752,
          "slug": "the-awesome-adventures-of-capitan-spirit",
          "name": "The Awesome Adventures of Captain Spirit",
          "added": 4623
        },
        {
          "id": 391399,
          "slug": "tell-me-why",
          "name": "Tell Me Why",
          "added": 4510
        }
      ]
    },
    {
      "id": 3844,
      "name": "Creative Assembly",
      "slug": "creative-assembly",
      "games_count": 79,
      "image_background": "https://media.rawg.io/media/screenshots/316/3167e4af403998733340435cbac726e6.jpg",
      "games": [
        {
          "id": 3556,
          "slug": "alien-isolation",
          "name": "Alien: Isolation",
          "added": 8078
        },
        {
          "id": 10560,
          "slug": "total-war-shogun-2",
          "name": "Total War: SHOGUN 2",
          "added": 7439
        },
        {
          "id": 14990,
          "slug": "viking",
          "name": "Viking: Battle for Asgard",
          "added": 3920
        },
        {
          "id": 14625,
          "slug": "medieval-ii-total-war",
          "name": "Medieval II: Total War",
          "added": 2666
        },
        {
          "id": 12741,
          "slug": "empire-total-war",
          "name": "Empire: Total War",
          "added": 2430
        },
        {
          "id": 14929,
          "slug": "rome-total-war-collection",
          "name": "Rome: Total War - Collection",
          "added": 2415
        }
      ]
    },
    {
      "id": 4115,
      "name": "Ubisoft Montpellier",
      "slug": "ubisoft-montpellier",
      "games_count": 28,
      "image_background": "https://media.rawg.io/media/games/39a/39a8aa7798b685f9625e857bc394259d.jpg",
      "games": [
        {
          "id": 58616,
          "slug": "assassins-creed-odyssey",
          "name": "Assassin's Creed Odyssey",
          "added": 8042
        },
        {
          "id": 8146,
          "slug": "assassins-creed-unity-2",
          "name": "Assassin's Creed Unity",
          "added": 6865
        },
        {
          "id": 3771,
          "slug": "rayman-legends",
          "name": "Rayman Legends",
          "added": 6614
        },
        {
          "id": 1758,
          "slug": "valiant-hearts-the-great-war",
          "name": "Valiant Hearts: The Great War",
          "added": 4679
        },
        {
          "id": 715,
          "slug": "steep",
          "name": "Steep",
          "added": 4036
        },
        {
          "id": 10125,
          "slug": "tom-clancys-ghost-recon-wildlands-2",
          "name": "Tom Clancy's Ghost Recon Wildlands",
          "added": 3760
        }
      ]
    },
    {
      "id": 5114,
      "name": "2K Marin",
      "slug": "2k-marin",
      "games_count": 8,
      "image_background": "https://media.rawg.io/media/games/4ba/4ba9b4b68ffcc7019b112174883ba4d6.jpg",
      "games": [
        {
          "id": 4286,
          "slug": "bioshock",
          "name": "BioShock",
          "added": 14542
        },
        {
          "id": 4427,
          "slug": "bioshock-2",
          "name": "BioShock 2",
          "added": 11401
        },
        {
          "id": 10754,
          "slug": "bioshock-remastered",
          "name": "BioShock Remastered",
          "added": 10814
        },
        {
          "id": 11142,
          "slug": "bioshock-2-remastered",
          "name": "BioShock 2 Remastered",
          "added": 9077
        },
        {
          "id": 3932,
          "slug": "the-bureau-xcom-declassified",
          "name": "The Bureau: XCOM Declassified",
          "added": 6704
        },
        {
          "id": 28367,
          "slug": "the-bureau",
          "name": "The Bureau",
          "added": 136
        }
      ]
    },
    {
      "id": 5342,
      "name": "Insomniac Games",
      "slug": "insomniac-games",
      "games_count": 39,
      "image_background": "https://media.rawg.io/media/games/4b8/4b823c94b723f1dc99b6f0d1cf00349d.jpg",
      "games": [
        {
          "id": 58134,
          "slug": "marvels-spider-man",
          "name": "Marvel's Spider-Man",
          "added": 10180
        },
        {
          "id": 2553,
          "slug": "ratchet-clank",
          "name": "Ratchet & Clank",
          "added": 6023
        },
        {
          "id": 6773,
          "slug": "sunset-overdrive",
          "name": "Sunset Overdrive",
          "added": 4415
        },
        {
          "id": 452634,
          "slug": "marvels-spider-man-miles-morales",
          "name": "Marvel's Spider-Man: Miles Morales",
          "added": 4184
        },
        {
          "id": 727315,
          "slug": "ratchet-clank-rift-apart",
          "name": "Ratchet & Clank: Rift Apart",
          "added": 1972
        },
        {
          "id": 663742,
          "slug": "marvels-spider-man-remastered",
          "name": "Marvel's Spider-Man Remastered",
          "added": 1559
        }
      ]
    },
    {
      "id": 4598,
      "name": "Irrational Games",
      "slug": "irrational-games",
      "games_count": 14,
      "image_background": "https://media.rawg.io/media/screenshots/e63/e63f02564e2bf7867ba40347d79a8f1f.jpg",
      "games": [
        {
          "id": 4062,
          "slug": "bioshock-infinite",
          "name": "BioShock Infinite",
          "added": 15865
        },
        {
          "id": 4286,
          "slug": "bioshock",
          "name": "BioShock",
          "added": 14542
        },
        {
          "id": 10615,
          "slug": "system-shock-2",
          "name": "System Shock 2",
          "added": 4366
        },
        {
          "id": 1314,
          "slug": "bioshock-the-collection",
          "name": "BioShock: The Collection",
          "added": 1570
        },
        {
          "id": 19619,
          "slug": "freedom-force",
          "name": "Freedom Force",
          "added": 846
        },
        {
          "id": 21725,
          "slug": "freedom-force-vs-the-third-reich",
          "name": "Freedom Force vs. the Third Reich",
          "added": 795
        }
      ]
    },
    {
      "id": 1492,
      "name": "Double Eleven",
      "slug": "double-eleven",
      "games_count": 22,
      "image_background": "https://media.rawg.io/media/screenshots/a59/a595606ae7a64643d164dc0072777120.jpg",
      "games": [
        {
          "id": 1030,
          "slug": "limbo",
          "name": "Limbo",
          "added": 13916
        },
        {
          "id": 4544,
          "slug": "red-dead-redemption",
          "name": "Red Dead Redemption",
          "added": 7147
        },
        {
          "id": 1959,
          "slug": "goat-simulator",
          "name": "Goat Simulator",
          "added": 6468
        },
        {
          "id": 12320,
          "slug": "prison-architect-all-day-and-a-psych",
          "name": "Prison Architect",
          "added": 5591
        },
        {
          "id": 3675,
          "slug": "pixeljunk-shooter-ultimate",
          "name": "PixelJunk Shooter Ultimate",
          "added": 1161
        },
        {
          "id": 5131,
          "slug": "pixeljunk-shooter",
          "name": "PixelJunk Shooter",
          "added": 1122
        }
      ]
    },
    {
      "id": 1971,
      "name": "Konami Digital Entertainment",
      "slug": "konami-digital-entertainment",
      "games_count": 467,
      "image_background": "https://media.rawg.io/media/games/d56/d56412cd670313ef306da64669c381d8.jpg",
      "games": [
        {
          "id": 8845,
          "slug": "yu-gi-oh-duel-links",
          "name": "Yu-Gi-Oh! Duel Links",
          "added": 1837
        },
        {
          "id": 723957,
          "slug": "yu-gi-oh-master-duel",
          "name": "Yu-Gi-Oh! Master Duel",
          "added": 1719
        },
        {
          "id": 52790,
          "slug": "castlevania-sotn",
          "name": "Castlevania: Symphony of the Night",
          "added": 1714
        },
        {
          "id": 5529,
          "slug": "castlevania-lords-of-shadow",
          "name": "Castlevania: Lords of Shadow",
          "added": 1559
        },
        {
          "id": 327269,
          "slug": "efootball-pes-2020",
          "name": "eFootball PES 2020",
          "added": 1485
        },
        {
          "id": 27230,
          "slug": "castlevania-los-mirror-of-fate-hd",
          "name": "Castlevania: Lords of Shadow - Mirror of Fate",
          "added": 1286
        }
      ]
    },
    {
      "id": 3801,
      "name": "Infinity Ward",
      "slug": "infinity-ward",
      "games_count": 19,
      "image_background": "https://media.rawg.io/media/games/50c/50c69996b917ae50d8d319f6ce9bed37.jpg",
      "games": [
        {
          "id": 4527,
          "slug": "modern-warfare-2",
          "name": "Call of Duty: Modern Warfare 2",
          "added": 7418
        },
        {
          "id": 11276,
          "slug": "call-of-duty-modern-warfare-3",
          "name": "Call of Duty: Modern Warfare 3",
          "added": 6228
        },
        {
          "id": 4535,
          "slug": "modern-warfare",
          "name": "Call of Duty 4: Modern Warfare",
          "added": 4326
        },
        {
          "id": 323065,
          "slug": "call-of-duty-modern-warfare",
          "name": "Call of Duty: Modern Warfare (2019)",
          "added": 3879
        },
        {
          "id": 7439,
          "slug": "call-of-duty-ghosts",
          "name": "Call of Duty: Ghosts",
          "added": 3287
        },
        {
          "id": 887,
          "slug": "call-of-duty-infinite-warfare",
          "name": "Call of Duty: Infinite Warfare",
          "added": 3246
        }
      ]
    },
    {
      "id": 3813,
      "name": "Monolith Productions",
      "slug": "monolith-productions",
      "games_count": 31,
      "image_background": "https://media.rawg.io/media/screenshots/fe3/fe3c70f850a034f6fe550984be6fe3fd.jpg",
      "games": [
        {
          "id": 11973,
          "slug": "shadow-of-mordor",
          "name": "Middle-earth: Shadow of Mordor",
          "added": 11580
        },
        {
          "id": 25,
          "slug": "middle-earth-shadow-of-war",
          "name": "Middle-earth: Shadow of War",
          "added": 8629
        },
        {
          "id": 19452,
          "slug": "fear",
          "name": "F.E.A.R.",
          "added": 5378
        },
        {
          "id": 5564,
          "slug": "fear-2-project-origin",
          "name": "F.E.A.R. 2: Project Origin",
          "added": 5052
        },
        {
          "id": 14422,
          "slug": "condemned-criminal-origins",
          "name": "Condemned: Criminal Origins",
          "added": 3114
        },
        {
          "id": 17507,
          "slug": "guardians-of-middle-earth",
          "name": "Guardians of Middle-earth",
          "added": 1764
        }
      ]
    }
  ]
}