{
  "count": 454484,
  "next": "https://api.rawg.io/api/developers?key=ff21d233351b48e39e19b6a27274792b&page=2",
  "previous": null,
  "results": [
      {
          "id": 1612,
          "name": "Valve Software",
          "slug": "valve-software",
          "games_count": 44,
          "image_background": "https://media.rawg.io/media/games/46d/46d98e6910fbc0706e2948a7cc9b10c5.jpg",
          "games": [
              {
                  "id": 4200,
                  "slug": "portal-2",
                  "name": "Portal 2",
                  "added": 20451
              },
              {
                  "id": 4291,
                  "slug": "counter-strike-global-offensive",
                  "name": "Counter-Strike: Global Offensive",
                  "added": 18216
              },
              {
                  "id": 13536,
                  "slug": "portal",
                  "name": "Portal",
                  "added": 17425
              },
              {
                  "id": 12020,
                  "slug": "left-4-dead-2",
                  "name": "Left 4 Dead 2",
                  "added": 17326
              },
              {
                  "id": 13537,
                  "slug": "half-life-2",
                  "name": "Half-Life 2",
                  "added": 15755
              },
              {
                  "id": 11859,
                  "slug": "team-fortress-2",
                  "name": "Team Fortress 2",
                  "added": 13928
              }
          ]
      },
      {
          "id": 405,
          "name": "Ubisoft",
          "slug": "ubisoft",
          "games_count": 345,
          "image_background": "https://media.rawg.io/media/games/99b/99b39612e864d6ddfdb2c407fd9010a1.jpg",
          "games": [
              {
                  "id": 4161,
                  "slug": "far-cry-3",
                  "name": "Far Cry 3",
                  "added": 10529
              },
              {
                  "id": 362,
                  "slug": "for-honor",
                  "name": "For Honor",
                  "added": 9633
              },
              {
                  "id": 3841,
                  "slug": "assassins-creed-iv-black-flag",
                  "name": "Assassin’s Creed IV: Black Flag",
                  "added": 9516
              },
              {
                  "id": 23585,
                  "slug": "far-cry-5",
                  "name": "Far Cry 5",
                  "added": 8295
              },
              {
                  "id": 9830,
                  "slug": "brawlhalla",
                  "name": "Brawlhalla",
                  "added": 8243
              },
              {
                  "id": 3687,
                  "slug": "watch-dogs",
                  "name": "Watch Dogs",
                  "added": 8231
              }
          ]
      },
      {
          "id": 18893,
          "name": "Feral Interactive",
          "slug": "feral-interactive",
          "games_count": 107,
          "image_background": "https://media.rawg.io/media/screenshots/375/375f84d018242d7519a230f623981217.jpg",
          "games": [
              {
                  "id": 7689,
                  "slug": "rise-of-the-tomb-raider",
                  "name": "Rise of the Tomb Raider",
                  "added": 12163
              },
              {
                  "id": 11973,
                  "slug": "shadow-of-mordor",
                  "name": "Middle-earth: Shadow of Mordor",
                  "added": 11580
              },
              {
                  "id": 4427,
                  "slug": "bioshock-2",
                  "name": "BioShock 2",
                  "added": 11401
              },
              {
                  "id": 10754,
                  "slug": "bioshock-remastered",
                  "name": "BioShock Remastered",
                  "added": 10814
              },
              {
                  "id": 10035,
                  "slug": "hitman",
                  "name": "Hitman",
                  "added": 10780
              },
              {
                  "id": 10243,
                  "slug": "company-of-heroes-2",
                  "name": "Company of Heroes 2",
                  "added": 9855
              }
          ]
      },
      {
          "id": 3709,
          "name": "Ubisoft Montreal",
          "slug": "ubisoft-montreal",
          "games_count": 120,
          "image_background": "https://media.rawg.io/media/games/6d2/6d27cf9c22f2b28cf3ae706464d138f9.jpg",
          "games": [
              {
                  "id": 4161,
                  "slug": "far-cry-3",
                  "name": "Far Cry 3",
                  "added": 10529
              },
              {
                  "id": 362,
                  "slug": "for-honor",
                  "name": "For Honor",
                  "added": 9633
              },
              {
                  "id": 3841,
                  "slug": "assassins-creed-iv-black-flag",
                  "name": "Assassin’s Creed IV: Black Flag",
                  "added": 9516
              },
              {
                  "id": 23585,
                  "slug": "far-cry-5",
                  "name": "Far Cry 5",
                  "added": 8295
              },
              {
                  "id": 3687,
                  "slug": "watch-dogs",
                  "name": "Watch Dogs",
                  "added": 8231
              },
              {
                  "id": 8488,
                  "slug": "tom-clancys-rainbow-six-siege-2",
                  "name": "Tom Clancy's Rainbow Six Siege",
                  "added": 8139
              }
          ]
      },
      {
          "id": 4132,
          "name": "Square Enix",
          "slug": "square-enix",
          "games_count": 367,
          "image_background": "https://media.rawg.io/media/games/a92/a92272ea5cfc35b8ad6317fbd81ce0f6.jpg",
          "games": [
              {
                  "id": 10035,
                  "slug": "hitman",
                  "name": "Hitman",
                  "added": 10780
              },
              {
                  "id": 3017,
                  "slug": "just-cause-3",
                  "name": "Just Cause 3",
                  "added": 9297
              },
              {
                  "id": 4513,
                  "slug": "just-cause-2",
                  "name": "Just Cause 2",
                  "added": 8868
              },
              {
                  "id": 3766,
                  "slug": "thief",
                  "name": "Thief",
                  "added": 7262
              },
              {
                  "id": 3474,
                  "slug": "lara-croft-and-the-temple-of-osiris",
                  "name": "Lara Croft and the Temple of Osiris",
                  "added": 7171
              },
              {
                  "id": 750,
                  "slug": "final-fantasy-xv",
                  "name": "FINAL FANTASY XV",
                  "added": 5788
              }
          ]
      },
      {
          "id": 109,
          "name": "Electronic Arts",
          "slug": "electronic-arts",
          "games_count": 318,
          "image_background": "https://media.rawg.io/media/games/979/979155841412068e7adf8c83dee94a4a.jpg",
          "games": [
              {
                  "id": 4570,
                  "slug": "dead-space",
                  "name": "Dead Space (2008)",
                  "added": 9387
              },
              {
                  "id": 5525,
                  "slug": "brutal-legend",
                  "name": "Brutal Legend",
                  "added": 8379
              },
              {
                  "id": 998,
                  "slug": "battlefield-1",
                  "name": "Battlefield 1",
                  "added": 7648
              },
              {
                  "id": 4550,
                  "slug": "dead-space-2",
                  "name": "Dead Space 2",
                  "added": 6673
              },
              {
                  "id": 42187,
                  "slug": "the-sims-4",
                  "name": "The Sims 4",
                  "added": 6456
              },
              {
                  "id": 3842,
                  "slug": "battlefield-4",
                  "name": "Battlefield 4",
                  "added": 6434
              }
          ]
      },
      {
          "id": 3678,
          "name": "Capcom",
          "slug": "capcom",
          "games_count": 465,
          "image_background": "https://media.rawg.io/media/games/8e7/8e79a8e6bd4e71c8ce0006544a17aaf2.jpg",
          "games": [
              {
                  "id": 46889,
                  "slug": "monster-hunter-world-2",
                  "name": "Monster Hunter: World",
                  "added": 8754
              },
              {
                  "id": 480,
                  "slug": "resident-evil-7-biohazard",
                  "name": "Resident Evil 7: Biohazard",
                  "added": 8573
              },
              {
                  "id": 13461,
                  "slug": "resident-evil-5-biohazard-5",
                  "name": "Resident Evil 5",
                  "added": 7563
              },
              {
                  "id": 56184,
                  "slug": "resident-evil-4",
                  "name": "Resident Evil 4 (2005)",
                  "added": 6890
              },
              {
                  "id": 58755,
                  "slug": "devil-may-cry-5",
                  "name": "Devil May Cry 5",
                  "added": 6564
              },
              {
                  "id": 5159,
                  "slug": "resident-evil-2",
                  "name": "Resident Evil 2 (1998)",
                  "added": 6366
              }
          ]
      },
      {
          "id": 17132,
          "name": "Aspyr Media",
          "slug": "aspyr-media",
          "games_count": 68,
          "image_background": "https://media.rawg.io/media/games/932/93221053809511fde4a0c6a9fddaf558.jpg",
          "games": [
              {
                  "id": 4062,
                  "slug": "bioshock-infinite",
                  "name": "BioShock Infinite",
                  "added": 15865
              },
              {
                  "id": 802,
                  "slug": "borderlands-2",
                  "name": "Borderlands 2",
                  "added": 15744
              },
              {
                  "id": 13633,
                  "slug": "civilization-v",
                  "name": "Sid Meier's Civilization V",
                  "added": 9695
              },
              {
                  "id": 3543,
                  "slug": "borderlands-the-pre-sequel",
                  "name": "Borderlands: The Pre-Sequel",
                  "added": 9236
              },
              {
                  "id": 10297,
                  "slug": "civilization-vi",
                  "name": "Sid Meier’s Civilization VI",
                  "added": 7369
              },
              {
                  "id": 15859,
                  "slug": "star-wars-knights-of-the-old-republic-2",
                  "name": "Star Wars: Knights of the Old Republic",
                  "added": 6911
              }
          ]
      },
      {
          "id": 6,
          "name": "Sony Interactive Entertainment",
          "slug": "sony-interactive-entertainment",
          "games_count": 527,
          "image_background": "https://media.rawg.io/media/games/596/596215939911a0d97facfc224b1bca30.jpg",
          "games": [
              {
                  "id": 5193,
                  "slug": "oddworld-abes-oddysee",
                  "name": "Oddworld: Abe's Oddysee",
                  "added": 5742
              },
              {
                  "id": 4491,
                  "slug": "shadow-of-the-colossus",
                  "name": "Shadow of the Colossus (2011)",
                  "added": 4569
              },
              {
                  "id": 57908,
                  "slug": "tomb-raider-ii",
                  "name": "Tomb Raider II",
                  "added": 3254
              },
              {
                  "id": 15851,
                  "slug": "star-wars-dark-forces-2",
                  "name": "Star Wars: Dark Forces",
                  "added": 3090
              },
              {
                  "id": 5403,
                  "slug": "flower",
                  "name": "Flower",
                  "added": 2733
              },
              {
                  "id": 12280,
                  "slug": "tomb-raider-the-last-revelation",
                  "name": "Tomb Raider IV: The Last Revelation",
                  "added": 2444
              }
          ]
      },
      {
          "id": 425,
          "name": "SEGA",
          "slug": "sega",
          "games_count": 578,
          "image_background": "https://media.rawg.io/media/screenshots/845/84595759d06a7c5ed2eab76f623454f7.jpeg",
          "games": [
              {
                  "id": 28179,
                  "slug": "sega-mega-drive-and-genesis-classics",
                  "name": "SEGA Mega Drive and Genesis Classics",
                  "added": 8417
              },
              {
                  "id": 3556,
                  "slug": "alien-isolation",
                  "name": "Alien: Isolation",
                  "added": 8078
              },
              {
                  "id": 492,
                  "slug": "yakuza-0",
                  "name": "Yakuza 0",
                  "added": 6566
              },
              {
                  "id": 53341,
                  "slug": "jet-set-radio-2012",
                  "name": "Jet Set Radio",
                  "added": 5294
              },
              {
                  "id": 23587,
                  "slug": "sonic-mania",
                  "name": "Sonic Mania",
                  "added": 5027
              },
              {
                  "id": 3965,
                  "slug": "binary-domain",
                  "name": "Binary Domain",
                  "added": 4661
              }
          ]
      }
  ]
}