{
  "count": 454486,
  "next": "https://api.rawg.io/api/developers?key=ff21d233351b48e39e19b6a27274792b&page=4",
  "previous": "https://api.rawg.io/api/developers?key=ff21d233351b48e39e19b6a27274792b&page=2",
  "results": [
    {
      "id": 84,
      "name": "THQ Nordic",
      "slug": "thq-nordic",
      "games_count": 67,
      "image_background": "https://media.rawg.io/media/screenshots/88a/88add4b9a50c2f6478c7929063c14af0.jpg",
      "games": [
        {
          "id": 11052,
          "slug": "titan-quest-anniversary-edition",
          "name": "Titan Quest Anniversary Edition",
          "added": 7977
        },
        {
          "id": 10449,
          "slug": "darksiders-ii-deathinitive-edition",
          "name": "Darksiders II Deathinitive Edition",
          "added": 5618
        },
        {
          "id": 4179,
          "slug": "darksiders-ii",
          "name": "Darksiders II",
          "added": 5304
        },
        {
          "id": 398423,
          "slug": "gothic-playable-teaser",
          "name": "Gothic Playable Teaser",
          "added": 4867
        },
        {
          "id": 15566,
          "slug": "red-faction-guerrilla",
          "name": "Red Faction: Guerrilla",
          "added": 4700
        },
        {
          "id": 123,
          "slug": "titan-quest",
          "name": "Titan Quest",
          "added": 3951
        }
      ]
    },
    {
      "id": 17,
      "name": "Capcom U.S.A",
      "slug": "capcom-usa-inc",
      "games_count": 82,
      "image_background": "https://media.rawg.io/media/games/725/725131e129692ec32ed62e9e405f5f4c.jpg",
      "games": [
        {
          "id": 46889,
          "slug": "monster-hunter-world-2",
          "name": "Monster Hunter: World",
          "added": 8754
        },
        {
          "id": 480,
          "slug": "resident-evil-7-biohazard",
          "name": "Resident Evil 7: Biohazard",
          "added": 8573
        },
        {
          "id": 13461,
          "slug": "resident-evil-5-biohazard-5",
          "name": "Resident Evil 5",
          "added": 7563
        },
        {
          "id": 4000,
          "slug": "remember-me",
          "name": "Remember Me",
          "added": 5152
        },
        {
          "id": 4032,
          "slug": "dragons-dogma-dark-arisen",
          "name": "Dragon's Dogma: Dark Arisen",
          "added": 5147
        },
        {
          "id": 2805,
          "slug": "street-fighter-v",
          "name": "Street Fighter V",
          "added": 4478
        }
      ]
    },
    {
      "id": 16257,
      "name": "Nintendo",
      "slug": "nintendo",
      "games_count": 425,
      "image_background": "https://media.rawg.io/media/games/0b7/0b746092287560e4ff5a6ceb5faaed8e.jpg",
      "games": [
        {
          "id": 22511,
          "slug": "the-legend-of-zelda-breath-of-the-wild",
          "name": "The Legend of Zelda: Breath of the Wild",
          "added": 6061
        },
        {
          "id": 28026,
          "slug": "super-mario-odyssey",
          "name": "Super Mario Odyssey",
          "added": 3739
        },
        {
          "id": 58829,
          "slug": "super-smash-bros-ultimate",
          "name": "Super Smash Bros. Ultimate",
          "added": 2193
        },
        {
          "id": 23165,
          "slug": "mario-kart-8-deluxe",
          "name": "Mario Kart 8 Deluxe",
          "added": 1814
        },
        {
          "id": 421698,
          "slug": "animal-crossing-2019",
          "name": "Animal Crossing: New Horizons",
          "added": 1804
        },
        {
          "id": 25097,
          "slug": "the-legend-of-zelda-ocarina-of-time",
          "name": "The Legend of Zelda: Ocarina of Time",
          "added": 1785
        }
      ]
    },
    {
      "id": 8933,
      "name": "BioWare",
      "slug": "bioware",
      "games_count": 65,
      "image_background": "https://media.rawg.io/media/games/add/add07a75a3f1e479b55dbe920d9fb13d.jpg",
      "games": [
        {
          "id": 4806,
          "slug": "mass-effect-2",
          "name": "Mass Effect 2",
          "added": 9285
        },
        {
          "id": 4166,
          "slug": "mass-effect",
          "name": "Mass Effect",
          "added": 8816
        },
        {
          "id": 15859,
          "slug": "star-wars-knights-of-the-old-republic-2",
          "name": "Star Wars: Knights of the Old Republic",
          "added": 6911
        },
        {
          "id": 4639,
          "slug": "dragon-age-origins",
          "name": "Dragon Age: Origins",
          "added": 6781
        },
        {
          "id": 28559,
          "slug": "dragon-age-inquisition",
          "name": "Dragon Age: Inquisition",
          "added": 6293
        },
        {
          "id": 4439,
          "slug": "mass-effect-3",
          "name": "Mass Effect 3",
          "added": 4545
        }
      ]
    },
    {
      "id": 3524,
      "name": "Rockstar North",
      "slug": "rockstar-north",
      "games_count": 29,
      "image_background": "https://media.rawg.io/media/screenshots/43b/43b00286439d859eaea32b8e269b83f9.jpg",
      "games": [
        {
          "id": 3498,
          "slug": "grand-theft-auto-v",
          "name": "Grand Theft Auto V",
          "added": 21890
        },
        {
          "id": 4459,
          "slug": "grand-theft-auto-iv",
          "name": "Grand Theft Auto IV",
          "added": 12936
        },
        {
          "id": 416,
          "slug": "grand-theft-auto-san-andreas",
          "name": "Grand Theft Auto: San Andreas",
          "added": 11693
        },
        {
          "id": 430,
          "slug": "grand-theft-auto-vice-city",
          "name": "Grand Theft Auto: Vice City",
          "added": 9601
        },
        {
          "id": 4544,
          "slug": "red-dead-redemption",
          "name": "Red Dead Redemption",
          "added": 7147
        },
        {
          "id": 4414,
          "slug": "grand-theft-auto-episodes-from-liberty-city",
          "name": "Grand Theft Auto: Episodes from Liberty City",
          "added": 3783
        }
      ]
    },
    {
      "id": 1072,
      "name": "Digital Extremes",
      "slug": "digital-extremes",
      "games_count": 21,
      "image_background": "https://media.rawg.io/media/games/657/657574cd437df9102f511b3be095b0ea.jpg",
      "games": [
        {
          "id": 4286,
          "slug": "bioshock",
          "name": "BioShock",
          "added": 14542
        },
        {
          "id": 766,
          "slug": "warframe",
          "name": "Warframe",
          "added": 13052
        },
        {
          "id": 4427,
          "slug": "bioshock-2",
          "name": "BioShock 2",
          "added": 11401
        },
        {
          "id": 10754,
          "slug": "bioshock-remastered",
          "name": "BioShock Remastered",
          "added": 10814
        },
        {
          "id": 11142,
          "slug": "bioshock-2-remastered",
          "name": "BioShock 2 Remastered",
          "added": 9077
        },
        {
          "id": 4223,
          "slug": "the-darkness-ii",
          "name": "The Darkness II",
          "added": 8079
        }
      ]
    },
    {
      "id": 5833,
      "name": "Raven Software",
      "slug": "raven-software",
      "games_count": 47,
      "image_background": "https://media.rawg.io/media/games/450/4501d8493e6ed172bd4982a16b56e580.jpg",
      "games": [
        {
          "id": 906,
          "slug": "cod-black-ops-iii",
          "name": "Call of Duty: Black Ops III",
          "added": 7173
        },
        {
          "id": 865,
          "slug": "call-of-duty-black-ops",
          "name": "Call of Duty: Black Ops",
          "added": 6820
        },
        {
          "id": 11276,
          "slug": "call-of-duty-modern-warfare-3",
          "name": "Call of Duty: Modern Warfare 3",
          "added": 6228
        },
        {
          "id": 884,
          "slug": "call-of-duty-modern-warfare-remastered",
          "name": "Call of Duty: Modern Warfare Remastered",
          "added": 4566
        },
        {
          "id": 11970,
          "slug": "star-wars-jedi-knight-jedi-academy",
          "name": "Star Wars Jedi Knight: Jedi Academy",
          "added": 4379
        },
        {
          "id": 4535,
          "slug": "modern-warfare",
          "name": "Call of Duty 4: Modern Warfare",
          "added": 4326
        }
      ]
    },
    {
      "id": 4037,
      "name": "Crystal Dynamics",
      "slug": "crystal-dynamics",
      "games_count": 43,
      "image_background": "https://media.rawg.io/media/games/84d/84da5a0c948592becea7a022e151a8b0.jpg",
      "games": [
        {
          "id": 5286,
          "slug": "tomb-raider",
          "name": "Tomb Raider (2013)",
          "added": 17525
        },
        {
          "id": 7689,
          "slug": "rise-of-the-tomb-raider",
          "name": "Rise of the Tomb Raider",
          "added": 12163
        },
        {
          "id": 3474,
          "slug": "lara-croft-and-the-temple-of-osiris",
          "name": "Lara Croft and the Temple of Osiris",
          "added": 7171
        },
        {
          "id": 4882,
          "slug": "lara-croft-gol",
          "name": "Lara Croft and the Guardian of Light",
          "added": 5008
        },
        {
          "id": 4869,
          "slug": "tomb-raider-underworld",
          "name": "Tomb Raider: Underworld",
          "added": 4911
        },
        {
          "id": 5298,
          "slug": "tomb-raider-legend",
          "name": "Tomb Raider: Legend",
          "added": 4473
        }
      ]
    },
    {
      "id": 9023,
      "name": "CD PROJEKT RED",
      "slug": "cd-projekt-red",
      "games_count": 24,
      "image_background": "https://media.rawg.io/media/games/3dc/3dceff39e3e3b5ae75a80e5db75b9451.jpg",
      "games": [
        {
          "id": 3328,
          "slug": "the-witcher-3-wild-hunt",
          "name": "The Witcher 3: Wild Hunt",
          "added": 21525
        },
        {
          "id": 41494,
          "slug": "cyberpunk-2077",
          "name": "Cyberpunk 2077",
          "added": 13439
        },
        {
          "id": 16944,
          "slug": "the-witcher-2-assassins-of-kings-enhanced-edition",
          "name": "The Witcher 2: Assassins of Kings Enhanced Edition",
          "added": 11898
        },
        {
          "id": 17822,
          "slug": "the-witcher-enhanced-edition-directors-cut",
          "name": "The Witcher: Enhanced Edition Director's Cut",
          "added": 11822
        },
        {
          "id": 23557,
          "slug": "gwent-the-witcher-card-game",
          "name": "Gwent: The Witcher Card Game",
          "added": 5040
        },
        {
          "id": 244722,
          "slug": "gwent-thronebreaker",
          "name": "Thronebreaker: The Witcher Tales",
          "added": 2391
        }
      ]
    },
    {
      "id": 4149,
      "name": "2K Australia",
      "slug": "2k-australia",
      "games_count": 12,
      "image_background": "https://media.rawg.io/media/screenshots/f2e/f2e59a790f186dbeb0a0085ef4558385.jpg",
      "games": [
        {
          "id": 4062,
          "slug": "bioshock-infinite",
          "name": "BioShock Infinite",
          "added": 15865
        },
        {
          "id": 4286,
          "slug": "bioshock",
          "name": "BioShock",
          "added": 14542
        },
        {
          "id": 4427,
          "slug": "bioshock-2",
          "name": "BioShock 2",
          "added": 11401
        },
        {
          "id": 10754,
          "slug": "bioshock-remastered",
          "name": "BioShock Remastered",
          "added": 10814
        },
        {
          "id": 3543,
          "slug": "borderlands-the-pre-sequel",
          "name": "Borderlands: The Pre-Sequel",
          "added": 9236
        },
        {
          "id": 11142,
          "slug": "bioshock-2-remastered",
          "name": "BioShock 2 Remastered",
          "added": 9077
        }
      ]
    }
  ]
}