{
  "count": 454487,
  "next": "https://api.rawg.io/api/developers?key=ff21d233351b48e39e19b6a27274792b&page=11",
  "previous": "https://api.rawg.io/api/developers?key=ff21d233351b48e39e19b6a27274792b&page=9",
  "results": [
    {
      "id": 5113,
      "name": "2K China",
      "slug": "2k-china",
      "games_count": 8,
      "image_background": "https://media.rawg.io/media/games/d43/d4357402bfcf2cf06650aab2e3bbf2a3.jpg",
      "games": [
        {
          "id": 4286,
          "slug": "bioshock",
          "name": "BioShock",
          "added": 14542
        },
        {
          "id": 4427,
          "slug": "bioshock-2",
          "name": "BioShock 2",
          "added": 11401
        },
        {
          "id": 10754,
          "slug": "bioshock-remastered",
          "name": "BioShock Remastered",
          "added": 10814
        },
        {
          "id": 11142,
          "slug": "bioshock-2-remastered",
          "name": "BioShock 2 Remastered",
          "added": 9077
        },
        {
          "id": 6885,
          "slug": "pirates-3",
          "name": "Sid Meier's Pirates!",
          "added": 2346
        },
        {
          "id": 24621,
          "slug": "major-league-baseball-2k9",
          "name": "Major League Baseball 2K9",
          "added": 11
        }
      ]
    },
    {
      "id": 1320,
      "name": "High Voltage Software",
      "slug": "high-voltage-software",
      "games_count": 53,
      "image_background": "https://media.rawg.io/media/screenshots/692/692d66edf3d5eed6c1b3a6f9321ba7c5.jpg",
      "games": [
        {
          "id": 17540,
          "slug": "injustice-gods-among-us-ultimate-edition",
          "name": "Injustice: Gods Among Us Ultimate Edition",
          "added": 9830
        },
        {
          "id": 108,
          "slug": "mortal-kombat-x",
          "name": "Mortal Kombat X",
          "added": 8934
        },
        {
          "id": 17599,
          "slug": "mortal-kombat-komplete-edition",
          "name": "Mortal Kombat Komplete Edition",
          "added": 4059
        },
        {
          "id": 3450,
          "slug": "saints-row-gat-out-of-hell",
          "name": "Saints Row: Gat Out of Hell",
          "added": 4019
        },
        {
          "id": 4679,
          "slug": "tcs-graw2",
          "name": "Tom Clancy's Ghost Recon Advanced Warfighter 2",
          "added": 911
        },
        {
          "id": 53146,
          "slug": "baldurs-gate-dark-alliance",
          "name": "Baldur's Gate: Dark Alliance",
          "added": 200
        }
      ]
    },
    {
      "id": 3466,
      "name": "11 Bit Studios",
      "slug": "11-bit-studios",
      "games_count": 23,
      "image_background": "https://media.rawg.io/media/screenshots/be9/be9518db23bf31d485de94b37277a41f.jpg",
      "games": [
        {
          "id": 1090,
          "slug": "this-war-of-mine",
          "name": "This War of Mine",
          "added": 7295
        },
        {
          "id": 45821,
          "slug": "frostpunk",
          "name": "Frostpunk",
          "added": 6044
        },
        {
          "id": 18287,
          "slug": "anomaly-warzone-earth",
          "name": "Anomaly: Warzone Earth",
          "added": 3453
        },
        {
          "id": 22162,
          "slug": "moonlighter",
          "name": "Moonlighter",
          "added": 3664
        },
        {
          "id": 9877,
          "slug": "beat-cop",
          "name": "Beat Cop",
          "added": 2179
        },
        {
          "id": 1562,
          "slug": "anomaly-2",
          "name": "Anomaly 2",
          "added": 1912
        }
      ]
    },
    {
      "id": 19732,
      "name": "Respawn Entertainment",
      "slug": "respawn-entertainment",
      "games_count": 30,
      "image_background": "https://media.rawg.io/media/games/2d2/2d2c240b0bea0625fd90224455cd5fba.jpg",
      "games": [
        {
          "id": 290856,
          "slug": "apex-legends",
          "name": "Apex Legends",
          "added": 11929
        },
        {
          "id": 257201,
          "slug": "jedi-the-fallen-order",
          "name": "Star Wars Jedi: Fallen Order",
          "added": 9449
        },
        {
          "id": 923,
          "slug": "titanfall-2",
          "name": "Titanfall 2",
          "added": 8559
        },
        {
          "id": 42230,
          "slug": "titanfall",
          "name": "Titanfall",
          "added": 2076
        },
        {
          "id": 793647,
          "slug": "star-wars-jedi-survivor",
          "name": "Star Wars Jedi: Survivor",
          "added": 1277
        },
        {
          "id": 484696,
          "slug": "medal-of-honor-above-and-beyond",
          "name": "Medal of Honor: Above and Beyond",
          "added": 94
        }
      ]
    },
    {
      "id": 3232,
      "name": "Bungie",
      "slug": "bungie-inc",
      "games_count": 30,
      "image_background": "https://media.rawg.io/media/games/34b/34b1f1850a1c06fd971bc6ab3ac0ce0e.jpg",
      "games": [
        {
          "id": 32,
          "slug": "destiny-2",
          "name": "Destiny 2",
          "added": 14487
        },
        {
          "id": 894,
          "slug": "destiny",
          "name": "Destiny",
          "added": 5061
        },
        {
          "id": 28589,
          "slug": "halo-3",
          "name": "Halo 3",
          "added": 3076
        },
        {
          "id": 28613,
          "slug": "halo-reach",
          "name": "Halo: Reach",
          "added": 3016
        },
        {
          "id": 50566,
          "slug": "halo-3-odst",
          "name": "Halo 3: ODST",
          "added": 1779
        },
        {
          "id": 28448,
          "slug": "halo-combat-evolved",
          "name": "Halo: Combat Evolved",
          "added": 902
        }
      ]
    },
    {
      "id": 1784,
      "name": "Microids",
      "slug": "microids",
      "games_count": 129,
      "image_background": "https://media.rawg.io/media/screenshots/3a3/3a38d98a736f610afe997d61b2a1a75f.jpg",
      "games": [
        {
          "id": 3486,
          "slug": "syberia",
          "name": "Syberia",
          "added": 6798
        },
        {
          "id": 22781,
          "slug": "syberia-2",
          "name": "Syberia 2",
          "added": 6163
        },
        {
          "id": 10986,
          "slug": "syberia-3",
          "name": "Syberia 3",
          "added": 1863
        },
        {
          "id": 16437,
          "slug": "still-life",
          "name": "Still Life",
          "added": 1179
        },
        {
          "id": 16435,
          "slug": "still-life-2",
          "name": "Still Life 2",
          "added": 1069
        },
        {
          "id": 2764,
          "slug": "agatha-christie-the-abc-murders",
          "name": "Agatha Christie - The ABC Murders",
          "added": 1058
        }
      ]
    },
    {
      "id": 13214,
      "name": "Quantic Dream",
      "slug": "quantic-dream",
      "games_count": 10,
      "image_background": "https://media.rawg.io/media/games/cbe/cbefb1f8fd68a02bae78a86f738660f7.jpg",
      "games": [
        {
          "id": 29177,
          "slug": "detroit-become-human",
          "name": "Detroit: Become Human",
          "added": 10109
        },
        {
          "id": 2743,
          "slug": "heavy-rain",
          "name": "Heavy Rain",
          "added": 8202
        },
        {
          "id": 3028,
          "slug": "beyond-two-souls",
          "name": "Beyond: Two Souls",
          "added": 6498
        },
        {
          "id": 2296,
          "slug": "fahrenheit-indigo-prophecy-remastered",
          "name": "Fahrenheit: Indigo Prophecy Remastered",
          "added": 3256
        },
        {
          "id": 22828,
          "slug": "fahrenheit-indigo-prophecy",
          "name": "Fahrenheit (Indigo Prophecy)",
          "added": 1251
        },
        {
          "id": 22909,
          "slug": "omikron-the-nomad-soul",
          "name": "Omikron: The Nomad Soul",
          "added": 230
        }
      ]
    },
    {
      "id": 3513,
      "name": "Supergiant Games",
      "slug": "supergiant-games",
      "games_count": 5,
      "image_background": "https://media.rawg.io/media/games/f99/f9979698c43fd84c3ab69280576dd3af.jpg",
      "games": [
        {
          "id": 613,
          "slug": "bastion",
          "name": "Bastion",
          "added": 8716
        },
        {
          "id": 274755,
          "slug": "hades-2018",
          "name": "Hades",
          "added": 8820
        },
        {
          "id": 1010,
          "slug": "transistor",
          "name": "Transistor",
          "added": 7791
        },
        {
          "id": 27,
          "slug": "pyre",
          "name": "Pyre",
          "added": 2916
        },
        {
          "id": 891238,
          "slug": "hades-ii",
          "name": "Hades II",
          "added": 564
        }
      ]
    },
    {
      "id": 4304,
      "name": "4A Games",
      "slug": "4a-games",
      "games_count": 16,
      "image_background": "https://media.rawg.io/media/screenshots/4cf/4cfa423ae97a712c52c780e5baee2c28.jpg",
      "games": [
        {
          "id": 29028,
          "slug": "metro-2033",
          "name": "Metro 2033",
          "added": 12588
        },
        {
          "id": 3604,
          "slug": "metro-last-light-redux",
          "name": "Metro: Last Light Redux",
          "added": 9232
        },
        {
          "id": 3603,
          "slug": "metro-redux",
          "name": "Metro 2033 Redux",
          "added": 9055
        },
        {
          "id": 28201,
          "slug": "metro-exodus",
          "name": "Metro Exodus",
          "added": 8225
        },
        {
          "id": 28395,
          "slug": "metro-last-light",
          "name": "Metro: Last Light",
          "added": 4279
        }
      ]
    },
    {
      "id": 4024,
      "name": "Paradox Development Studio",
      "slug": "paradox-development-studio",
      "games_count": 64,
      "image_background": "https://media.rawg.io/media/screenshots/830/830eadfe1374714b88868639ef0e93ce.jpg",
      "games": [
        {
          "id": 10340,
          "slug": "crusader-kings-ii",
          "name": "Crusader Kings II",
          "added": 7859
        },
        {
          "id": 10040,
          "slug": "stellaris",
          "name": "Stellaris",
          "added": 5146
        },
        {
          "id": 10037,
          "slug": "europa-universalis-iv",
          "name": "Europa Universalis IV",
          "added": 2852
        },
        {
          "id": 10715,
          "slug": "hearts-of-iron-iv",
          "name": "Hearts of Iron IV",
          "added": 2708
        },
        {
          "id": 19240,
          "slug": "europa-universalis-iii-complete",
          "name": "Europa Universalis III Complete",
          "added": 1432
        },
        {
          "id": 62422,
          "slug": "imperator-rome",
          "name": "Imperator: Rome",
          "added": 1284
        }
      ]
    }
  ]
}